Designprosjekt/Designprosjekt 1/Kode/ESDA_1_DesignProsjekt1_2025-main/data/data_5v_sin.csv

#Digilent WaveForms Oscilloscope Acquisition
#Device Name: Discovery2
#Serial Number: SN:210321B80CBB
#Date Time: 2025-01-13 16:25:08.866
#Sample rate: 800000Hz
#Samples: 8192
#Trigger: Source: Channel 1 Type: Edge Condition: Rising Level: 0 V Hyst.: Auto HoldOff: 0 s
#Channel 1: Range: 1 V/div Offset: 0 V Sample Mode: Average
#Wavegen Channel 1: Running
#Mode: Simple
#Type: Sine
#Frequency: 1 kHz
#Period: 1 ms
#Amplitude: 5 V
#Offset: 0 V
#Symmetry: 50 %
#Phase: 0 °

Time (s),Channel 1 (V)
-0.003586527777777778,2.593371410190432
-0.003585277777777778,2.574882947700164
-0.003584027777777777,2.534208330221559
-0.003582777777777778,2.500929097739092
-0.003581527777777777,2.482440635248824
-0.003580277777777778,2.441766017770235
-0.003579027777777777,2.404789092789699
-0.003577777777777778,2.36781216780918
-0.003576527777777777,2.330835242828627
-0.003575277777777777,2.293858317848078
-0.003574027777777778,2.264276777863663
-0.003572777777777777,2.223602160385056
-0.003571527777777778,2.186625235404537
-0.003570277777777777,2.149648310424002
-0.003569027777777778,2.12746215543568
-0.003567777777777777,2.079392152960984
-0.003566527777777778,2.046112920478516
-0.003565277777777777,2.009135995497966
-0.003564027777777777,1.975856763015468
-0.003562777777777778,1.942577530533001
-0.003561527777777777,1.894507528058291
-0.003560277777777778,1.864925988073876
-0.003559027777777777,1.824251370595287
-0.003557777777777778,1.790972138112819
-0.003556527777777777,1.757692905630322
-0.003555277777777778,1.717018288151751
-0.003554027777777777,1.676343670673143
-0.003552777777777777,1.650459823186748
-0.003551527777777778,1.606087513210125
-0.003550277777777777,1.558017510735429
-0.003549027777777778,1.532133663249053
-0.003547777777777777,1.48776135327241
-0.003546527777777778,1.461877505786047
-0.003545277777777777,1.421202888307446
-0.003544027777777778,1.373132885832771
-0.003542777777777778,1.336155960852214
-0.003541527777777777,1.306574420867765
-0.003540277777777778,1.262202110891142
-0.003539027777777777,1.228922878408659
-0.003537777777777778,1.180852875933963
-0.003536527777777777,1.151271335949534
-0.003535277777777778,1.114294410969015
-0.003534027777777777,1.073619793490409
-0.003532777777777777,1.040340561007907
-0.003531527777777778,0.9959682510312837
-0.003530277777777777,0.9589913260507328
-0.003529027777777778,0.9257120935682657
-0.003527777777777777,0.8776420910935691
-0.003526527777777778,0.8332697811169261
-0.003525277777777777,0.8110836261286045
-0.003524027777777778,0.7667113161519817
-0.003522777777777777,0.7223390061753185
-0.003521527777777777,0.6816643886967124
-0.003520277777777778,0.6446874637161933
-0.003519027777777777,0.6151059237317411
-0.003517777777777778,0.5633382287590144
-0.003516527777777777,0.5300589962765322
-0.003515277777777778,0.4893843787979613
-0.003514027777777777,0.4450120688212998
-0.003512777777777778,0.4043374513427288
-0.003511527777777777,0.3673605263621745
-0.003510277777777777,0.3303836013816219
-0.003509027777777778,0.2934066764011029
-0.003507777777777777,0.2601274439186206
-0.003506527777777778,0.212057441443924
-0.003505277777777777,0.1787782089614417
-0.003504027777777778,0.1270105139887151
-0.003502777777777777,0.09742897400426288
-0.003501527777777778,0.06784743401984766
-0.003500277777777778,0.01607973904708404
-0.003499027777777777,-0.02459487843151884
-0.003497777777777778,-0.05417641841593406
-0.003496527777777777,-0.1022464208906306
-0.003495277777777778,-0.1466187308672736
-0.003494027777777777,-0.1798979633497559
-0.003492777777777778,-0.2205725808283268
-0.003491527777777777,-0.2649448908049883
-0.003490277777777777,-0.3093172007816414
-0.003489027777777778,-0.3315033557699528
-0.003487777777777777,-0.3721779732485624
-0.003486527777777778,-0.4165502832251853
-0.003485277777777777,-0.4535272082057211
-0.003484027777777778,-0.490504133186257
-0.003482777777777777,-0.5311787506648463
-0.003481527777777778,-0.5718533681434173
-0.003480277777777777,-0.6162256781200788
-0.003479027777777777,-0.6532026031006297
-0.003477777777777778,-0.6864818355830969
-0.003476527777777777,-0.7234587605636563
-0.003475277777777778,-0.7752264555363829
-0.003474027777777777,-0.801110303022758
-0.003472777777777778,-0.8380872280032938
-0.003471527777777777,-0.8824595379799368
-0.003470277777777778,-0.9268318479565596
-0.003469027777777777,-0.9638087729371156
-0.003467777777777777,-1.004483390415722
-0.003466527777777778,-1.041460315396241
-0.003465277777777777,-1.08213493287483
-0.003464027777777778,-1.111716472859259
-0.003462777777777777,-1.152391090337848
-0.003461527777777778,-1.196763400314471
-0.003460277777777777,-1.233740325295027
-0.003459027777777778,-1.274414942773598
-0.003457777777777777,-1.300298790259992
-0.003456527777777777,-1.34467110023665
-0.003455277777777778,-1.377950332719117
-0.003454027777777777,-1.42232264269576
-0.003452777777777778,-1.459299567676296
-0.003451527777777777,-1.492578800158778
-0.003450277777777778,-1.540648802633453
-0.003449027777777777,-1.570230342617903
-0.003447777777777777,-1.614602652594563
-0.003446527777777778,-1.651579577575082
-0.003445277777777777,-1.684858810057579
-0.003444027777777778,-1.718138042540047
-0.003442777777777777,-1.758812660018636
-0.003441527777777778,-1.799487277497226
-0.003440277777777777,-1.836464202477762
-0.003439027777777778,-1.869743434960228
-0.003437777777777777,-1.910418052438833
-0.003436527777777777,-1.93630189992523
-0.003435277777777778,-1.984371902399905
-0.003434027777777777,-2.017651134882398
-0.003432777777777778,-2.039837289870709
-0.003431527777777777,-2.084209599847352
-0.003430277777777778,-2.121186524827888
-0.003429027777777777,-2.161861142306477
-0.003427777777777778,-2.195140374788944
-0.003426527777777777,-2.221024222275334
-0.003425277777777777,-2.258001147255892
-0.003424027777777778,-2.306071149730567
-0.003422777777777777,-2.331954997216942
-0.003421527777777778,-2.368931922197478
-0.003420277777777777,-2.405908847178014
-0.003419027777777778,-2.439188079660481
-0.003417777777777777,-2.476165004641032
-0.003416527777777778,-2.509444237123499
-0.003415277777777777,-2.550118854602103
-0.003414027777777777,-2.568607317092388
-0.003412777777777778,-2.605584242072907
-0.003411527777777777,-2.64995655204955
-0.003410277777777778,-2.672142707037871
-0.003409027777777777,-2.694328862026193
-0.003407777777777778,-2.738701172002816
-0.003406527777777777,-2.768282711987265
-0.003405277777777778,-2.808957329465835
-0.003404027777777778,-2.842236561948337
-0.003402777777777777,-2.875515794430834
-0.003401527777777778,-2.908795026913301
-0.003400277777777777,-2.934678874399676
-0.003399027777777778,-2.964260414384105
-0.003397777777777777,-2.997539646866587
-0.003396527777777778,-3.038214264345158
-0.003395277777777777,-3.064098111831552
-0.003394027777777777,-3.089981959317942
-0.003392777777777778,-3.123261191800409
-0.003391527777777777,-3.156540424282904
-0.003390277777777778,-3.18612196426732
-0.003389027777777777,-3.219401196749802
-0.003387777777777778,-3.248982736734231
-0.003386527777777777,-3.271168891722552
-0.003385277777777778,-3.300750431706967
-0.003384027777777777,-3.334029664189463
-0.003382777777777777,-3.371006589170011
-0.003381527777777778,-3.396890436656374
-0.003380277777777777,-3.419076591644714
-0.003379027777777778,-3.459751209123285
-0.003377777777777777,-3.474541979115499
-0.003376527777777778,-3.504123519099914
-0.003375277777777777,-3.533705059084356
-0.003374027777777778,-3.570681984064875
-0.003372777777777777,-3.600263524049321
-0.003371527777777777,-3.6261473715357
-0.003370277777777778,-3.633542756531803
-0.003369027777777777,-3.677915066508446
-0.003367777777777778,-3.707496606492875
-0.003366527777777777,-3.718589683987036
-0.003365277777777778,-3.755566608967555
-0.003364027777777777,-3.785148148952
-0.003362777777777778,-3.80363661144226
-0.003361527777777778,-3.814729688936429
-0.003360277777777777,-3.862799691411136
-0.003359027777777778,-3.884985846399447
-0.003357777777777777,-3.910869693885822
-0.003356527777777778,-3.92935815637609
-0.003355277777777777,-3.955242003862465
-0.003354027777777778,-3.977428158850776
-0.003352777777777777,-4.010707391333268
-0.003351527777777777,-4.025498161325492
-0.003350277777777778,-4.047684316313804
-0.003349027777777777,-4.058777393807984
-0.003347777777777778,-4.099452011286554
-0.003346527777777777,-4.121638166274876
-0.003345277777777778,-4.140126628765143
-0.003344027777777777,-4.166010476251519
-0.003342777777777778,-4.180801246243727
-0.003341527777777777,-4.202987401232055
-0.003340277777777777,-4.22147586372234
-0.003339027777777778,-4.258452788702859
-0.003337777777777777,-4.273243558695083
-0.003336527777777778,-4.295429713683395
-0.003335277777777777,-4.310220483675609
-0.003334027777777778,-4.328708946165869
-0.003332777777777777,-4.347197408656145
-0.003331527777777778,-4.373081256142508
-0.003330277777777777,-4.384174333636681
-0.003329027777777777,-4.410058181123063
-0.003327777777777778,-4.428546643613323
-0.003326527777777777,-4.443337413605538
-0.003325277777777778,-4.461825876095806
-0.003324027777777777,-4.484012031084127
-0.003322777777777778,-4.502500493574387
-0.003321527777777777,-4.51729126356661
-0.003320277777777778,-4.532082033558817
-0.003319027777777778,-4.554268188547145
-0.003317777777777777,-4.569058958539364
-0.003316527777777778,-4.576454343535467
-0.003315277777777777,-4.602338191021841
-0.003314027777777778,-4.602338191021841
-0.003312777777777777,-4.639315116002377
-0.003311527777777778,-4.64301280850043
-0.003310277777777777,-4.654105885994592
-0.003309027777777777,-4.672594348484868
-0.003307777777777778,-4.691082810975128
-0.003306527777777777,-4.698478195971243
-0.003305277777777778,-4.716966658461503
-0.003304027777777777,-4.735455120951771
-0.003302777777777778,-4.742850505947878
-0.003301527777777777,-4.761338968438146
-0.003300277777777778,-4.772432045932302
-0.003299027777777777,-4.787222815924521
-0.003297777777777777,-4.783525123426473
-0.003296527777777778,-4.794618200920628
-0.003295277777777777,-4.81680435590895
-0.003294027777777778,-4.81680435590895
-0.003292777777777777,-4.838990510897271
-0.003291527777777778,-4.842688203395323
-0.003290277777777777,-4.846385895893379
-0.003289027777777778,-4.875967435877794
-0.003287777777777777,-4.875967435877807
-0.003286527777777777,-4.88336282087392
-0.003285277777777778,-4.894455898368075
-0.003284027777777777,-4.901851283364183
-0.003282777777777778,-4.909246668360289
-0.003281527777777777,-4.92033974585445
-0.003280277777777778,-4.935130515846657
-0.003279027777777777,-4.927735130850557
-0.003277777777777778,-4.935130515846661
-0.003276527777777778,-4.938828208344718
-0.003275277777777777,-4.949921285838886
-0.003274027777777778,-4.964712055831093
-0.003272777777777777,-4.975805133325254
-0.003271527777777778,-4.979502825823308
-0.003270277777777777,-4.975805133325254
-0.003269027777777778,-4.983200518321357
-0.003267777777777777,-4.983200518321361
-0.003266527777777777,-4.990595903317468
-0.003265277777777778,-4.990595903317468
-0.003264027777777777,-5.009084365807734
-0.003262777777777778,-5.005386673309682
-0.003261527777777777,-5.005386673309682
-0.003260277777777778,-5.005386673309682
-0.003259027777777777,-5.009084365807736
-0.003257777777777778,-5.01647975080384
-0.003256527777777777,-5.016479750803843
-0.003255277777777777,-5.016479750803842
-0.003254027777777778,-5.01278205830579
-0.003252777777777777,-5.012782058305795
-0.003251527777777778,-5.02387513579995
-0.003250277777777777,-5.020177443301897
-0.003249027777777778,-5.016479750803845
-0.003247777777777777,-5.020177443301897
-0.003246527777777778,-5.009084365807741
-0.003245277777777777,-5.016479750803843
-0.003244027777777777,-5.009084365807736
-0.003242777777777778,-5.009084365807736
-0.003241527777777777,-5.016479750803843
-0.003240277777777778,-5.016479750803843
-0.003239027777777777,-5.001688980811629
-0.003237777777777778,-5.005386673309681
-0.003236527777777777,-4.990595903317468
-0.003235277777777778,-4.997991288313572
-0.003234027777777778,-4.997991288313576
-0.003232777777777777,-4.986898210819414
-0.003231527777777778,-4.986898210819414
-0.003230277777777777,-4.986898210819414
-0.003229027777777778,-4.968409748329147
-0.003227777777777777,-4.968409748329147
-0.003226527777777778,-4.964712055831095
-0.003225277777777777,-4.96101436333304
-0.003224027777777777,-4.942525900842774
-0.003222777777777778,-4.946223593340825
-0.003221527777777777,-4.942525900842766
-0.003220277777777778,-4.931432823348611
-0.003219027777777777,-4.92033974585445
-0.003217777777777778,-4.912944360858343
-0.003216527777777777,-4.916642053356396
-0.003215277777777778,-4.898153590866136
-0.003214027777777777,-4.883362820873915
-0.003212777777777777,-4.879665128375852
-0.003211527777777778,-4.861176665885592
-0.003210277777777777,-4.8685720508817
-0.003209027777777778,-4.8685720508817
-0.003207777777777777,-4.846385895893379
-0.003206527777777778,-4.831595125901171
-0.003205277777777777,-4.824199740905057
-0.003204027777777778,-4.80940897091285
-0.003202777777777777,-4.798315893418682
-0.003201527777777777,-4.783525123426467
-0.003200277777777778,-4.783525123426467
-0.003199027777777777,-4.761338968438146
-0.003197777777777778,-4.761338968438146
-0.003196527777777777,-4.739152813449825
-0.003195277777777778,-4.720664350959565
-0.003194027777777777,-4.709571273465396
-0.003192777777777778,-4.698478195971241
-0.003191527777777778,-4.683687425979021
-0.003190277777777777,-4.679989733480956
-0.003189027777777778,-4.654105885994592
-0.003187777777777777,-4.631919731006271
-0.003186527777777778,-4.631919731006271
-0.003185277777777777,-4.613431268516003
-0.003184027777777778,-4.598640498523795
-0.003182777777777777,-4.587547421029628
-0.003181527777777777,-4.561663573543242
-0.003180277777777778,-4.539477418554931
-0.003179027777777777,-4.535779726056868
-0.003177777777777778,-4.513593571068556
-0.003176527777777777,-4.495105108578288
-0.003175277777777778,-4.469221261091913
-0.003174027777777777,-4.458128183597752
-0.003172777777777778,-4.43594202860944
-0.003171527777777777,-4.417453566119162
-0.003170277777777777,-4.410058181123046
-0.003169027777777778,-4.387872026134734
-0.003167777777777777,-4.365685871146405
-0.003166527777777778,-4.347197408656145
-0.003165277777777777,-4.325011253667823
-0.003164027777777778,-4.306522791177563
-0.003162777777777777,-4.28063894369118
-0.003161527777777778,-4.265848173698973
-0.003160277777777777,-4.247359711208698
-0.003159027777777777,-4.225173556220365
-0.003157777777777778,-4.199289708734002
-0.003156527777777777,-4.173405861247626
-0.003155277777777778,-4.169708168749573
-0.003154027777777777,-4.140126628765143
-0.003152777777777778,-4.110545088780729
-0.003151527777777777,-4.088358933792394
-0.003150277777777778,-4.066172778804082
-0.003149027777777778,-4.047684316313804
-0.003147777777777777,-4.025498161325475
-0.003146527777777778,-4.007009698835215
-0.003145277777777777,-3.966335081356626
-0.003144027777777778,-3.951544311364412
-0.003142777777777777,-3.92935815637609
-0.003141527777777778,-3.892381231395571
-0.003140277777777777,-3.892381231395554
-0.003139027777777777,-3.855404306415008
-0.003137777777777778,-3.833218151426697
-0.003136527777777777,-3.796241226446154
-0.003135277777777778,-3.781450456453947
-0.003134027777777777,-3.748171223971465
-0.003132777777777778,-3.718589683987036
-0.003131527777777777,-3.692705836500661
-0.003130277777777778,-3.670519681512349
-0.003129027777777777,-3.644635834025964
-0.003127777777777777,-3.622449679037624
-0.003126527777777778,-3.581775061559053
-0.003125277777777777,-3.55589121407267
-0.003124027777777778,-3.53740275158241
-0.003122777777777777,-3.504123519099928
-0.003121527777777778,-3.467146594119392
-0.003120277777777777,-3.452355824127178
-0.003119027777777778,-3.419076591644711
-0.003117777777777777,-3.389495051660267
-0.003116527777777777,-3.352518126679718
-0.003115277777777778,-3.322936586695302
-0.003114027777777777,-3.293355046710873
-0.003112777777777778,-3.274866584220606
-0.003111527777777777,-3.245285044236177
-0.003110277777777778,-3.21200581175371
-0.003109027777777777,-3.178726579271212
-0.003107777777777778,-3.149145039286797
-0.003106527777777777,-3.119563499302355
-0.003105277777777777,-3.089981959317913
-0.003104027777777778,-3.060400419333498
-0.003102777777777777,-3.019725801854908
-0.003101527777777778,-2.99014426187048
-0.003100277777777777,-2.960562721886051
-0.003099027777777778,-2.927283489403584
-0.003097777777777777,-2.890306564423033
-0.003096527777777777,-2.871818101932752
-0.003095277777777778,-2.842236561948337
-0.003094027777777777,-2.794166559473627
-0.003092777777777778,-2.764585019489211
-0.003091527777777777,-2.727608094508675
-0.003090277777777778,-2.7017242470223
-0.003089027777777777,-2.664747322041765
-0.003087777777777778,-2.638863474555401
-0.003086527777777777,-2.5981888570768
-0.003085277777777777,-2.557514239598198
-0.003084027777777778,-2.531630392111835
-0.003082777777777777,-2.494653467131286
-0.003081527777777778,-2.465071927146871
-0.003080277777777777,-2.435490387162442
-0.003079027777777778,-2.398513462181906
-0.003077777777777777,-2.357838844703317
-0.003076527777777778,-2.32455961222085
-0.003075277777777777,-2.287582687240299
-0.003074027777777777,-2.258001147255852
-0.003072777777777778,-2.217326529777281
-0.003071527777777777,-2.187744989792852
-0.003070277777777778,-2.143372679816209
-0.003069027777777777,-2.110093447333727
-0.003067777777777778,-2.073116522353208
-0.003066527777777777,-2.043534982368762
-0.003065277777777778,-2.006558057388243
-0.003064027777777777,-1.973278824905744
-0.003062777777777777,-1.936301899925188
-0.003061527777777778,-1.891929589948565
-0.003060277777777777,-1.854952664968029
-0.003059027777777778,-1.821673432485547
-0.003057777777777777,-1.788394200003065
-0.003056527777777778,-1.747719582524494
-0.003055277777777777,-1.718138042540047
-0.003054027777777778,-1.670068040065372
-0.003052777777777778,-1.647881885077028
-0.003051527777777777,-1.599811882602314
-0.003050277777777778,-1.559137265123743
-0.003049027777777777,-1.518462647645153
-0.003047777777777778,-1.496276492656832
-0.003046527777777777,-1.448206490182135
-0.003045277777777778,-1.414927257699668
-0.003044027777777777,-1.381648025217171
-0.003042777777777777,-1.333578022742461
-0.003041527777777778,-1.303996482758045
-0.003040277777777777,-1.259624172781386
-0.003039027777777778,-1.222647247800867
-0.003037777777777777,-1.181972630322277
-0.003036527777777778,-1.144995705341741
-0.003035277777777777,-1.100623395365098
-0.003034027777777778,-1.067344162882631
-0.003032777777777777,-1.034064930400134
-0.003031527777777777,-0.9933903129215276
-0.003030277777777778,-0.9564133879410085
-0.003029027777777777,-0.9120410779643504
-0.003027777777777778,-0.8787618454818833
-0.003026527777777777,-0.8269941505091331
-0.003025277777777778,-0.7937149180266659
-0.003024027777777777,-0.7604356855441686
-0.003022777777777778,-0.7234587605636495
-0.003021527777777777,-0.6753887580889362
-0.003020277777777777,-0.6458072181044856
-0.003019027777777778,-0.5977372156298109
-0.003017777777777777,-0.5570625981512215
-0.003016527777777778,-0.5311787506648463
-0.003015277777777777,-0.490504133186257
-0.003014027777777778,-0.4461318232096341
-0.003012777777777777,-0.4128525907271317
-0.003011527777777778,-0.3573872032563531
-0.003010277777777778,-0.3204102782757921
-0.003009027777777777,-0.2871310457932947
-0.003007777777777778,-0.2538518133108276
-0.003006527777777777,-0.2094795033341846
-0.003005277777777778,-0.1762002708517023
-0.003004027777777777,-0.1355256533731129
-0.003002777777777778,-0.09115334339649007
-0.003001527777777777,-0.0430833409217733
-0.003000277777777777,-0.009804108439275913
-0.002999027777777778,0.02347512404319121
-0.002997777777777777,0.06414974152179745
-0.002996527777777778,0.1011266665023165
-0.002995277777777777,0.1418012839809059
-0.002994027777777778,0.1824759014594953
-0.002992777777777777,0.2231505189380847
